*Sep 12 13:47:17.862: %PA-3-PA_INIT_FAILED: Performance Agent failed to initialize (Missing Data License)Cisco IOSv (revision 1.0) with  with 460017K/62464K bytes of memory.Installed image archive
*Sep 12 13:47:19.409: %LINK-3-UPDOWN: Interface GigabitEthernet0/0, changed state to down
*Sep 12 13:47:19.409: %LINK-3-UPDOWN: Interface GigabitEthernet0/1, changed state to up
*Sep 12 13:47:19.410: %LINK-3-UPDOWN: Interface GigabitEthernet0/2, changed state to up
*Sep 12 13:47:19.410: %LINK-3-UPDOWN: Interface GigabitEthernet0/3, changed state to up
*Sep 12 13:47:19.802: %CVAC-4-FILE_IGNORED: Configuration file flash0:/ios_config.txt is ignored : empty file
*Sep 12 13:47:19.810: %CVAC-4-FILE_IGNORED: Configuration file flash2:/ios_config.txt is ignored : empty file
CMD: 'version 15.6' 13:47:19 UTC Sat Sep 12 2020
CMD: 'service timestamps debug datetime msec' 13:47:19 UTC Sat Sep 12 2020
CMD: 'service timestamps log datetime localtime show-timezone year' 13:47:19 UTC Sat Sep 12 2020
CMD: 'service password-encryption' 13:47:19 UTC Sat Sep 12 2020
CMD: 'hostname VIRL1' 13:47:19 UTC Sat Sep 12 2020
CMD: 'boot-start-marker' 13:47:19 UTC Sat Sep 12 2020
CMD: 'boot-end-marker' 13:47:19 UTC Sat Sep 12 2020
CMD: 'no aaa new-model' 13:47:19 UTC Sat Sep 12 2020
CMD: 'ethernet lmi ce' 13:47:19 UTC Sat Sep 12 2020
CMD: 'clock timezone EST -4 0' 13:47:19 UTC Sat Sep 12 2020
*Sep 12 2020 09:47:19 EST: %SYS-6-CLOCKUPDATE: System clock has been updated from 13:47:19 UTC Sat Sep 12 2020 to 09:47:19 EST Sat Sep 12 2020, configured from console by console.
CMD: 'mmi polling-interval 60' 09:47:19 EST Sat Sep 12 2020
CMD: 'no mmi auto-configure' 09:47:19 EST Sat Sep 12 2020
CMD: 'no mmi pvc' 09:47:19 EST Sat Sep 12 2020
CMD: 'mmi snmp-timeout 180' 09:47:19 EST Sat Sep 12 2020
CMD: 'no ip icmp rate-limit unreachable' 09:47:19 EST Sat Sep 12 2020
CMD: 'ip domain name test.lab' 09:47:19 EST Sat Sep 12 2020
CMD: 'ip name-server 8.8.8.8' 09:47:19 EST Sat Sep 12 2020
CMD: 'ip cef' 09:47:19 EST Sat Sep 12 2020
CMD: 'no ipv6 cef' 09:47:19 EST Sat Sep 12 2020
CMD: 'multilink bundle-name authenticated' 09:47:19 EST Sat Sep 12 2020
CMD: 'archive' 09:47:19 EST Sat Sep 12 2020
CMD: ' log config' 09:47:19 EST Sat Sep 12 2020
CMD: '  logging enable' 09:47:19 EST Sat Sep 12 2020
CMD: '  logging size 1000' 09:47:19 EST Sat Sep 12 2020
CMD: '  hidekeys' 09:47:19 EST Sat Sep 12 2020
CMD: ' path flash0:' 09:47:19 EST Sat Sep 12 2020
*Sep 12 2020 09:47:20 EST: %LINEPROTO-5-UPDOWN: Line protocol on Interface GigabitEthernet0/0, changed state to down
*Sep 12 2020 09:47:20 EST: %LINEPROTO-5-UPDOWN: Line protocol on Interface GigabitEthernet0/1, changed state to up
*Sep 12 2020 09:47:20 EST: %LINEPROTO-5-UPDOWN: Line protocol on Interface GigabitEthernet0/2, changed state to up
*Sep 12 2020 09:47:20 EST: %LINEPROTO-5-UPDOWN: Line protocol on Interface GigabitEthernet0/3, changed state to up
CMD: ' write-memory' 09:47:20 EST Sat Sep 12 2020
CMD: 'redundancy' 09:47:20 EST Sat Sep 12 2020
CMD: 'no cdp log mismatch duplex' 09:47:20 EST Sat Sep 12 2020
CMD: 'ip tcp synwait-time 5' 09:47:20 EST Sat Sep 12 2020
CMD: 'interface GigabitEthernet0/0' 09:47:20 EST Sat Sep 12 2020
CMD: ' no ip address' 09:47:20 EST Sat Sep 12 2020
CMD: ' shutdown' 09:47:20 EST Sat Sep 12 2020
CMD: ' duplex auto' 09:47:20 EST Sat Sep 12 2020
CMD: ' speed auto' 09:47:20 EST Sat Sep 12 2020
CMD: ' media-type rj45' 09:47:20 EST Sat Sep 12 2020
CMD: 'interface GigabitEthernet0/1' 09:47:20 EST Sat Sep 12 2020
CMD: ' description ///GATEWAY TO INTERNET\\\' 09:47:20 EST Sat Sep 12 2020
CMD: ' ip address dhcp' 09:47:20 EST Sat Sep 12 2020
CMD: ' duplex auto' 09:47:20 EST Sat Sep 12 2020
CMD: ' speed auto' 09:47:20 EST Sat Sep 12 2020
CMD: ' media-type rj45' 09:47:20 EST Sat Sep 12 2020
CMD: 'interface GigabitEthernet0/2' 09:47:20 EST Sat Sep 12 2020
CMD: ' description ///TO RTR_1\\\' 09:47:20 EST Sat Sep 12 2020
CMD: ' ip address 10.0.0.1 255.255.255.254' 09:47:20 EST Sat Sep 12 2020
CMD: ' duplex auto' 09:47:20 EST Sat Sep 12 2020
CMD: ' speed auto' 09:47:20 EST Sat Sep 12 2020
CMD: ' media-type rj45' 09:47:20 EST Sat Sep 12 2020
CMD: 'interface GigabitEthernet0/3' 09:47:20 EST Sat Sep 12 2020
CMD: ' description ///TO RTR_2\\\' 09:47:20 EST Sat Sep 12 2020
CMD: ' ip address 10.0.0.3 255.255.255.254' 09:47:20 EST Sat Sep 12 2020
CMD: ' duplex auto' 09:47:20 EST Sat Sep 12 2020
CMD: ' speed auto' 09:47:20 EST Sat Sep 12 2020
CMD: ' media-type rj45' 09:47:20 EST Sat Sep 12 2020
CMD: 'ip forward-protocol nd' 09:47:20 EST Sat Sep 12 2020
CMD: 'no ip http server' 09:47:20 EST Sat Sep 12 2020
CMD: 'no ip http secure-server' 09:47:20 EST Sat Sep 12 2020
CMD: 'ip route 0.0.0.0 0.0.0.0 GigabitEthernet0/1 192.168.122.1' 09:47:20 EST Sat Sep 12 2020
*Sep 12 2020 09:47:20 EST: %IPRT-6-STATICROUTESACROSSTOPO: Cannot install inter-topology static route 0.0.0.0/0 topology base on outgoing interface GigabitEthernet0/1
CMD: 'ip route 10.0.0.0 255.255.255.254 GigabitEthernet0/2 10.0.0.0' 09:47:20 EST Sat Sep 12 2020
CMD: 'ip route 10.0.0.2 255.255.255.254 GigabitEthernet0/3 10.0.0.2' 09:47:21 EST Sat Sep 12 2020
CMD: 'control-plane' 09:47:21 EST Sat Sep 12 2020
CMD: 'banner exec ^C' 09:47:21 EST Sat Sep 12 2020
CMD: 'banner incoming ^C' 09:47:21 EST Sat Sep 12 2020
CMD: 'banner login ^C' 09:47:21 EST Sat Sep 12 2020
CMD: 'line con 0' 09:47:21 EST Sat Sep 12 2020
CMD: ' exec-timeout 0 0' 09:47:21 EST Sat Sep 12 2020
CMD: ' privilege level 15' 09:47:21 EST Sat Sep 12 2020
CMD: ' logging synchronous' 09:47:21 EST Sat Sep 12 2020
CMD: ' login local' 09:47:21 EST Sat Sep 12 2020
CMD: 'line aux 0' 09:47:21 EST Sat Sep 12 2020
CMD: ' exec-timeout 0 0' 09:47:21 EST Sat Sep 12 2020
CMD: ' privilege level 15' 09:47:21 EST Sat Sep 12 2020
CMD: ' logging synchronous' 09:47:21 EST Sat Sep 12 2020
CMD: 'line vty 0 4' 09:47:21 EST Sat Sep 12 2020
CMD: ' logging synchronous' 09:47:21 EST Sat Sep 12 2020
CMD: ' login local' 09:47:21 EST Sat Sep 12 2020
CMD: ' transport input ssh' 09:47:21 EST Sat Sep 12 2020
CMD: ' transport output ssh' 09:47:21 EST Sat Sep 12 2020
CMD: 'no scheduler allocate' 09:47:21 EST Sat Sep 12 2020
CMD: 'ntp master 1' 09:47:21 EST Sat Sep 12 2020
CMD: 'end' 09:47:21 EST Sat Sep 12 2020
*Sep 12 2020 09:47:21 EST: %SYS-5-CONFIG_I: Configured from memory by console
*Sep 12 2020 09:47:21 EST: %CVAC-4-FILE_IGNORED: Configuration file flash0:/ios_config.txt is ignored : empty file
*Sep 12 2020 09:47:21 EST: %CVAC-4-FILE_IGNORED: Configuration file flash2:/ios_config.txt is ignored : empty file
CMD: 'access-list 199 permit icmp host 10.10.10.10 host 20.20.20.20' 09:47:21 EST Sat Sep 12 2020
CMD: 'no access-list 199' 09:47:21 EST Sat Sep 12 2020
*Sep 12 2020 09:47:22 EST: %SYS-5-RESTART: System restarted --
*Sep 12 2020 09:47:22 EST: %SSH-5-ENABLED: SSH 1.99 has been enabled
*Sep 12 2020 09:47:22 EST: %CRYPTO-6-ISAKMP_ON_OFF: ISAKMP is OFF
*Sep 12 2020 09:47:22 EST: %CRYPTO-6-GDOI_ON_OFF: GDOI is OFF
Sep 12 2020 09:47:22 EST: %LINK-5-CHANGED: Interface GigabitEthernet0/0, changed state to administratively down
Sep 12 2020 09:47:34 EST: %DHCP-6-ADDRESS_ASSIGN: Interface GigabitEthernet0/1 assigned DHCP address 192.168.122.112, mask 255.255.255.0, hostname VIRL1
Sep 12 2020 09:47:44 EST: %PLATFORM-5-SIGNATURE_VERIFIED: Image 'flash0:/vios-adventerprisek9-m' passed code signing verification
CMD: 'terminal length 0' 09:49:54 EST Sat Sep 12 2020
CMD: 'terminal width 512' 09:49:54 EST Sat Sep 12 2020
CMD: 'terminal width 0' 09:49:54 EST Sat Sep 12 2020
CMD: 'show version' 09:49:54 EST Sat Sep 12 2020
CMD: 'show running-config' 09:49:54 EST Sat Sep 12 2020
CMD: 'terminal length 0' 10:15:44 EST Sat Sep 12 2020
CMD: 'terminal width 512' 10:15:44 EST Sat Sep 12 2020
CMD: 'terminal width 0' 10:15:44 EST Sat Sep 12 2020
CMD: 'show version' 10:15:44 EST Sat Sep 12 2020
CMD: 'show run' 10:15:44 EST Sat Sep 12 2020
CMD: 'terminal length 0' 10:19:23 EST Sat Sep 12 2020
CMD: 'terminal width 512' 10:19:23 EST Sat Sep 12 2020
CMD: 'terminal width 0' 10:19:23 EST Sat Sep 12 2020
CMD: 'show version' 10:19:23 EST Sat Sep 12 2020
CMD: 'show run' 10:19:23 EST Sat Sep 12 2020
CMD: 'terminal length 0' 10:32:39 EST Sat Sep 12 2020
CMD: 'terminal width 512' 10:32:39 EST Sat Sep 12 2020
CMD: 'terminal width 0' 10:32:40 EST Sat Sep 12 2020
CMD: 'show version' 10:32:40 EST Sat Sep 12 2020
CMD: 'show run' 10:32:40 EST Sat Sep 12 2020
CMD: 'show history all | in cmd' 10:34:08 EST Sat Sep 12 2020
CMD: 'conf t' 10:34:14 EST Sat Sep 12 2020
CMD: 'do show ip int br' 10:34:24 EST Sat Sep 12 2020
CMD: 'show ip int br' 10:34:24 EST Sat Sep 12 2020
CMD: 'int gi0/0' 10:34:27 EST Sat Sep 12 2020
CMD: 'shut' 10:34:30 EST Sat Sep 12 2020
CMD: 'no shut' 10:34:32 EST Sat Sep 12 2020
Sep 12 2020 10:34:34 EST: %LINK-3-UPDOWN: Interface GigabitEthernet0/0, changed state to down
CMD: 'description ///THIS_IS_A_TEST\\\' 10:34:43 EST Sat Sep 12 2020
CMD: 'ip add 69.69.69.1 255.0.0.0' 10:34:52 EST Sat Sep 12 2020
CMD: 'no ip redirects ' 10:34:54 EST Sat Sep 12 2020
Sep 12 2020 10:34:57 EST: %SYS-5-CONFIG_I: Configured from console by johnny on console
CMD: 'show history all | in cmd' 10:34:59 EST Sat Sep 12 2020
CMD: 'show history all ' 10:35:07 EST Sat Sep 12 2020
CMD: 'show history all | in CMD' 10:35:18 EST Sat Sep 12 2020
CMD: 'show history all | begin Sep | in CMD' 10:36:23 EST Sat Sep 12 2020
CMD: 'show history all | begin Sep 12 2020 | in CMD' 10:37:02 EST Sat Sep 12 2020
CMD: 'show history all | begin 12  | in CMD' 10:38:02 EST Sat Sep 12 2020
CMD: 'show history all | in CMD' 10:38:17 EST Sat Sep 12 2020
CMD: 'clock set 00:00:01 13 sep 2020' 10:38:39 EST Sat Sep 12 2020
.Sep 13 2020 00:00:01 EST: %SYS-6-CLOCKUPDATE: System clock has been updated from 10:38:39 EST Sat Sep 12 2020 to 00:00:01 EST Sun Sep 13 2020, configured from console by johnny on console.
CMD: 'show history all | begin 12  | in CMD' 00:00:04 EST Sun Sep 13 2020
CMD: 'show history all | inc 13 | inc CMD' 00:01:04 EST Sun Sep 13 2020
CMD: 'show history all | inc 12 | inc CMD' 00:04:32 EST Sun Sep 13 2020
CMD: 'show history all | inc 12 | inc CMD' 00:06:50 EST Sun Sep 13 2020
CMD: 'show history all | beg 12 | inc CMD' 00:09:02 EST Sun Sep 13 2020
CMD: 'show history all | begin 12  | in CMD' 00:09:24 EST Sun Sep 13 2020
CMD: 'show history all | inc 12 | inc CMD' 00:12:29 EST Sun Sep 13 2020
CMD: 'show history all | inc Sep 12 | inc CMD' 00:15:35 EST Sun Sep 13 2020
CMD: 'show history all | ex 12 | in CMD ' 00:16:50 EST Sun Sep 13 2020
CMD: 'show history all | inc CMD' 00:19:17 EST Sun Sep 13 2020
CMD: 'show history all | section exclude 12 | inc CMD' 00:19:38 EST Sun Sep 13 2020
CMD: 'show history all | section in 13 | inc CMD' 00:20:10 EST Sun Sep 13 2020
CMD: 'show history all | inc Sep 12 | inc CMD' 00:21:38 EST Sun Sep 13 2020
CMD: 'show history all | section in 13 | inc CMD' 00:22:15 EST Sun Sep 13 2020
CMD: 'show history all | sec inc 12 | inc CMD' 00:23:32 EST Sun Sep 13 2020