*Sep 12 2020 20:13:18 EST: %SYS-6-CLOCKUPDATE: System clock has been updated from 00:13:18 UTC Sun Sep 13 2020 to 20:13:18 EST Sat Sep 12 2020, configured from console by console.
CMD: 'mmi polling-interval 60' 20:13:18 EST Sat Sep 12 2020
CMD: 'no mmi auto-configure' 20:13:18 EST Sat Sep 12 2020
CMD: 'no mmi pvc' 20:13:18 EST Sat Sep 12 2020
CMD: 'mmi snmp-timeout 180' 20:13:18 EST Sat Sep 12 2020
CMD: 'no ip icmp rate-limit unreachable' 20:13:18 EST Sat Sep 12 2020
CMD: 'ip domain name test.lab' 20:13:18 EST Sat Sep 12 2020
CMD: 'ip name-server 8.8.8.8' 20:13:18 EST Sat Sep 12 2020
CMD: 'ip cef' 20:13:18 EST Sat Sep 12 2020
CMD: 'no ipv6 cef' 20:13:18 EST Sat Sep 12 2020
CMD: 'multilink bundle-name authenticated' 20:13:18 EST Sat Sep 12 2020
CMD: 'archive' 20:13:18 EST Sat Sep 12 2020
CMD: ' log config' 20:13:18 EST Sat Sep 12 2020
CMD: '  logging enable' 20:13:18 EST Sat Sep 12 2020
CMD: '  logging size 1000' 20:13:18 EST Sat Sep 12 2020
CMD: '  hidekeys' 20:13:18 EST Sat Sep 12 2020
CMD: ' path flash0:' 20:13:18 EST Sat Sep 12 2020
CMD: ' write-memory' 20:13:19 EST Sat Sep 12 2020
CMD: 'redundancy' 20:13:19 EST Sat Sep 12 2020
CMD: 'no cdp log mismatch duplex' 20:13:19 EST Sat Sep 12 2020
CMD: 'ip tcp synwait-time 5' 20:13:19 EST Sat Sep 12 2020
CMD: 'interface Loopback1' 20:13:19 EST Sat Sep 12 2020
CMD: ' ip address 11.1.1.1 255.255.255.0' 20:13:19 EST Sat Sep 12 2020
CMD: 'interface Loopback3' 20:13:19 EST Sat Sep 12 2020
CMD: ' ip address 8.8.8.8 255.0.0.0' 20:13:19 EST Sat Sep 12 2020
CMD: 'interface Loopback89' 20:13:19 EST Sat Sep 12 2020
CMD: ' ip address 99.3.3.3 255.255.255.255' 20:13:19 EST Sat Sep 12 2020
CMD: 'interface GigabitEthernet0/0' 20:13:19 EST Sat Sep 12 2020
CMD: ' description ///THIS_IS_A_TEST\\\' 20:13:19 EST Sat Sep 12 2020
CMD: ' ip address 69.69.69.1 255.0.0.0' 20:13:19 EST Sat Sep 12 2020
CMD: ' no ip redirects' 20:13:19 EST Sat Sep 12 2020
CMD: ' duplex auto' 20:13:19 EST Sat Sep 12 2020
CMD: ' speed auto' 20:13:19 EST Sat Sep 12 2020
CMD: ' media-type rj45' 20:13:19 EST Sat Sep 12 2020
CMD: 'interface GigabitEthernet0/1' 20:13:19 EST Sat Sep 12 2020
CMD: ' description ///GATEWAY TO INTERNET\\\' 20:13:19 EST Sat Sep 12 2020
CMD: ' ip address dhcp' 20:13:19 EST Sat Sep 12 2020
CMD: ' duplex auto' 20:13:19 EST Sat Sep 12 2020
CMD: ' speed auto' 20:13:19 EST Sat Sep 12 2020
CMD: ' media-type rj45' 20:13:19 EST Sat Sep 12 2020
CMD: 'interface GigabitEthernet0/2' 20:13:19 EST Sat Sep 12 2020
CMD: ' description ///TO RTR_1\\\' 20:13:19 EST Sat Sep 12 2020
CMD: ' ip address 10.0.0.1 255.255.255.254' 20:13:19 EST Sat Sep 12 2020
CMD: ' duplex auto' 20:13:19 EST Sat Sep 12 2020
CMD: ' speed auto' 20:13:19 EST Sat Sep 12 2020
CMD: ' media-type rj45' 20:13:19 EST Sat Sep 12 2020
CMD: 'interface GigabitEthernet0/3' 20:13:19 EST Sat Sep 12 2020
CMD: ' description ///TO RTR_2\\\' 20:13:19 EST Sat Sep 12 2020
CMD: ' ip address 10.0.0.3 255.255.255.254' 20:13:19 EST Sat Sep 12 2020
CMD: ' duplex auto' 20:13:19 EST Sat Sep 12 2020
CMD: ' speed auto' 20:13:19 EST Sat Sep 12 2020
CMD: ' media-type rj45' 20:13:19 EST Sat Sep 12 2020
CMD: 'ip forward-protocol nd' 20:13:19 EST Sat Sep 12 2020
CMD: 'no ip http server' 20:13:19 EST Sat Sep 12 2020
CMD: 'no ip http secure-server' 20:13:19 EST Sat Sep 12 2020
CMD: 'ip route 0.0.0.0 0.0.0.0 GigabitEthernet0/1 192.168.122.1' 20:13:19 EST Sat Sep 12 2020
CMD: 'ip route 10.0.0.0 255.255.255.254 GigabitEthernet0/2 10.0.0.0' 20:13:19 EST Sat Sep 12 2020
CMD: 'ip route 10.0.0.2 255.255.255.254 GigabitEthernet0/3 10.0.0.2' 20:13:19 EST Sat Sep 12 2020
CMD: 'control-plane' 20:13:19 EST Sat Sep 12 2020
CMD: 'banner exec ^C' 20:13:19 EST Sat Sep 12 2020
CMD: 'banner incoming ^C' 20:13:19 EST Sat Sep 12 2020
CMD: 'banner login ^C' 20:13:19 EST Sat Sep 12 2020
CMD: 'line con 0' 20:13:19 EST Sat Sep 12 2020
CMD: ' exec-timeout 0 0' 20:13:19 EST Sat Sep 12 2020
CMD: ' privilege level 15' 20:13:19 EST Sat Sep 12 2020
CMD: ' logging synchronous' 20:13:19 EST Sat Sep 12 2020
CMD: ' login local' 20:13:19 EST Sat Sep 12 2020
CMD: 'line aux 0' 20:13:19 EST Sat Sep 12 2020
CMD: ' exec-timeout 0 0' 20:13:19 EST Sat Sep 12 2020
CMD: ' privilege level 15' 20:13:19 EST Sat Sep 12 2020
CMD: ' logging synchronous' 20:13:19 EST Sat Sep 12 2020
CMD: 'line vty 0 4' 20:13:19 EST Sat Sep 12 2020
CMD: ' logging synchronous' 20:13:19 EST Sat Sep 12 2020
CMD: ' login local' 20:13:19 EST Sat Sep 12 2020
CMD: ' transport input ssh' 20:13:19 EST Sat Sep 12 2020
CMD: ' transport output ssh' 20:13:19 EST Sat Sep 12 2020
CMD: 'no scheduler allocate' 20:13:19 EST Sat Sep 12 2020
CMD: 'ntp master 1' 20:13:19 EST Sat Sep 12 2020
CMD: 'end' 20:13:19 EST Sat Sep 12 2020
*Sep 12 2020 20:13:19 EST: %SYS-5-CONFIG_I: Configured from memory by console
*Sep 12 2020 20:13:19 EST: %CVAC-4-FILE_IGNORED: Configuration file flash0:/ios_config.txt is ignored : empty file
*Sep 12 2020 20:13:19 EST: %CVAC-4-FILE_IGNORED: Configuration file flash2:/ios_config.txt is ignored : empty file
CMD: 'access-list 199 permit icmp host 10.10.10.10 host 20.20.20.20' 20:13:19 EST Sat Sep 12 2020
CMD: 'no access-list 199' 20:13:19 EST Sat Sep 12 2020
*Sep 12 2020 20:13:19 EST: %LINEPROTO-5-UPDOWN: Line protocol on Interface GigabitEthernet0/0, changed state to down
*Sep 12 2020 20:13:19 EST: %LINEPROTO-5-UPDOWN: Line protocol on Interface GigabitEthernet0/1, changed state to up
*Sep 12 2020 20:13:19 EST: %LINEPROTO-5-UPDOWN: Line protocol on Interface GigabitEthernet0/2, changed state to up
*Sep 12 2020 20:13:19 EST: %LINEPROTO-5-UPDOWN: Line protocol on Interface GigabitEthernet0/3, changed state to up
*Sep 12 2020 20:13:20 EST: %LINEPROTO-5-UPDOWN: Line protocol on Interface Loopback1, changed state to up
*Sep 12 2020 20:13:20 EST: %LINEPROTO-5-UPDOWN: Line protocol on Interface Loopback3, changed state to up
*Sep 12 2020 20:13:20 EST: %LINEPROTO-5-UPDOWN: Line protocol on Interface Loopback89, changed state to up
*Sep 12 2020 20:13:20 EST: %SYS-5-RESTART: System restarted --
*Sep 12 2020 20:13:20 EST: %SSH-5-ENABLED: SSH 1.99 has been enabled
*Sep 12 2020 20:13:20 EST: %CRYPTO-6-ISAKMP_ON_OFF: ISAKMP is OFF
*Sep 12 2020 20:13:20 EST: %CRYPTO-6-GDOI_ON_OFF: GDOI is OFF
Sep 12 2020 20:13:32 EST: %DHCP-6-ADDRESS_ASSIGN: Interface GigabitEthernet0/1 assigned DHCP address 192.168.122.112, mask 255.255.255.0, hostname VIRL1
Sep 12 2020 20:13:36 EST: %PLATFORM-5-SIGNATURE_VERIFIED: Image 'flash0:/vios-adventerprisek9-m' passed code signing verification
CMD: 'terminal length 0' 20:22:00 EST Sat Sep 12 2020
CMD: 'terminal width 512' 20:22:00 EST Sat Sep 12 2020
CMD: 'terminal width 0' 20:22:01 EST Sat Sep 12 2020
CMD: 'show version' 20:22:01 EST Sat Sep 12 2020
CMD: 'show version' 20:22:01 EST Sat Sep 12 2020
CMD: 'show interfaces' 20:22:01 EST Sat Sep 12 2020
CMD: 'show ip interface' 20:22:01 EST Sat Sep 12 2020
CMD: 'show ipv6 interface' 20:22:01 EST Sat Sep 12 2020
CMD: 'show lldp' 20:22:01 EST Sat Sep 12 2020
CMD: 'show cdp' 20:22:02 EST Sat Sep 12 2020
CMD: 'show cdp neighbors detail' 20:22:02 EST Sat Sep 12 2020
CMD: 'show running-config' 20:22:02 EST Sat Sep 12 2020
CMD: 'show version' 20:22:02 EST Sat Sep 12 2020
CMD: 'dir' 20:22:02 EST Sat Sep 12 2020
CMD: 'show memory statistics' 20:22:03 EST Sat Sep 12 2020
CMD: 'show run' 20:29:39 EST Sat Sep 12 2020
CMD: 'terminal length 0' 20:34:46 EST Sat Sep 12 2020
CMD: 'terminal width 512' 20:34:47 EST Sat Sep 12 2020
CMD: 'terminal width 0' 20:34:47 EST Sat Sep 12 2020
CMD: 'show version' 20:34:47 EST Sat Sep 12 2020
CMD: 'show history all | sec inc 12 | inc CMD' 20:34:47 EST Sat Sep 12 2020