Building configuration...

  
Current configuration : 3734 bytes
!
! No configuration change since last restart
!
version 15.6
service timestamps debug datetime msec
service timestamps log datetime localtime show-timezone year
service password-encryption
!
hostname VIRL1
!
boot-start-marker
boot-end-marker
!
!
!
no aaa new-model
ethernet lmi ce
!
!
!
clock timezone EST -4 0
mmi polling-interval 60
no mmi auto-configure
no mmi pvc
mmi snmp-timeout 180
!
!
!
!
!
no ip icmp rate-limit unreachable
!
!
!
!
!
!
ip domain name test.lab
ip name-server 8.8.8.8
ip cef
no ipv6 cef
!
multilink bundle-name authenticated
!
!
!
!
archive
 log config
  logging enable
  logging size 1000
  hidekeys
 path flash0:
 write-memory
username johnny privilege 15 secret 5 $1$qZBK$To.M8hzWSE4wSE44SLpmm1
!
redundancy
!
no cdp log mismatch duplex
!
ip tcp synwait-time 5
! 
!
!
!
!
!
!
!
!
!
!
!
!
interface GigabitEthernet0/0
 no ip address
 shutdown
 duplex auto
 speed auto
 media-type rj45
!
interface GigabitEthernet0/1
 description ///GATEWAY TO INTERNET\\\
 ip address dhcp
 duplex auto
 speed auto
 media-type rj45
!
interface GigabitEthernet0/2
 description ///TO RTR_1\\\
 ip address 10.0.0.1 255.255.255.254
 duplex auto
 speed auto
 media-type rj45
!
interface GigabitEthernet0/3
 description ///TO RTR_2\\\
 ip address 10.0.0.3 255.255.255.254
 duplex auto
 speed auto
 media-type rj45
!
ip forward-protocol nd
!
!
no ip http server
no ip http secure-server
ip route 0.0.0.0 0.0.0.0 GigabitEthernet0/1 192.168.122.1
ip route 10.0.0.0 255.255.255.254 GigabitEthernet0/2 10.0.0.0
ip route 10.0.0.2 255.255.255.254 GigabitEthernet0/3 10.0.0.2
!
!
!
!
control-plane
!
banner exec ^C
**************************************************************************
* IOSv is strictly limited to use for evaluation, demonstration and IOS  *
* education. IOSv is provided as-is and is not supported by Cisco's      *
* Technical Advisory Center. Any use or disclosure, in whole or in part, *
* of the IOSv Software or Documentation to any third party for any       *
* purposes is expressly prohibited except as otherwise authorized by     *
* Cisco in writing.                                                      *
**************************************************************************^C
banner incoming ^C
**************************************************************************
* IOSv is strictly limited to use for evaluation, demonstration and IOS  *
* education. IOSv is provided as-is and is not supported by Cisco's      *
* Technical Advisory Center. Any use or disclosure, in whole or in part, *
* of the IOSv Software or Documentation to any third party for any       *
* purposes is expressly prohibited except as otherwise authorized by     *
* Cisco in writing.                                                      *
**************************************************************************^C
banner login ^C
**************************************************************************
* IOSv is strictly limited to use for evaluation, demonstration and IOS  *
* education. IOSv is provided as-is and is not supported by Cisco's      *
* Technical Advisory Center. Any use or disclosure, in whole or in part, *
* of the IOSv Software or Documentation to any third party for any       *
* purposes is expressly prohibited except as otherwise authorized by     *
* Cisco in writing.                                                      *
**************************************************************************^C
!
line con 0
 exec-timeout 0 0
 privilege level 15
 logging synchronous
 login local
line aux 0
 exec-timeout 0 0
 privilege level 15
 logging synchronous
line vty 0 4
 logging synchronous
 login local
 transport input ssh
 transport output ssh
!
no scheduler allocate
ntp master 1
!
end